%YAML 1.1
%TAG !u! tag:unity3d.com,2011:
--- !u!29 &1
SceneSettings:
  m_ObjectHideFlags: 0
  m_PVSData: 
  m_PVSObjectsArray: []
  m_PVSPortalsArray: []
  m_OcclusionBakeSettings:
    smallestOccluder: 5
    smallestHole: .25
    backfaceThreshold: 100
--- !u!104 &2
RenderSettings:
  m_ObjectHideFlags: 0
  serializedVersion: 6
  m_Fog: 0
  m_FogColor: {r: .5, g: .5, b: .5, a: 1}
  m_FogMode: 3
  m_FogDensity: .00999999978
  m_LinearFogStart: 0
  m_LinearFogEnd: 300
  m_AmbientSkyColor: {r: .200000003, g: .200000003, b: .200000003, a: 1}
  m_AmbientEquatorColor: {r: .200000003, g: .200000003, b: .200000003, a: 1}
  m_AmbientGroundColor: {r: .200000003, g: .200000003, b: .200000003, a: 1}
  m_AmbientIntensity: 1
  m_AmbientMode: 3
  m_SkyboxMaterial: {fileID: 0}
  m_HaloStrength: .5
  m_FlareStrength: 1
  m_FlareFadeSpeed: 3
  m_HaloTexture: {fileID: 0}
  m_SpotCookie: {fileID: 10001, guid: 0000000000000000e000000000000000, type: 0}
  m_DefaultReflectionMode: 0
  m_DefaultReflectionResolution: 128
  m_ReflectionBounces: 1
  m_ReflectionIntensity: 1
  m_CustomReflection: {fileID: 0}
  m_Sun: {fileID: 0}
--- !u!127 &3
LevelGameManager:
  m_ObjectHideFlags: 0
--- !u!157 &4
LightmapSettings:
  m_ObjectHideFlags: 0
  serializedVersion: 5
  m_GIWorkflowMode: 1
  m_LightmapsMode: 1
  m_GISettings:
    serializedVersion: 2
    m_BounceScale: 1
    m_IndirectOutputScale: 1
    m_AlbedoBoost: 1
    m_TemporalCoherenceThreshold: 1
    m_EnvironmentLightingMode: 0
    m_EnableBakedLightmaps: 1
    m_EnableRealtimeLightmaps: 0
  m_LightmapEditorSettings:
    serializedVersion: 3
    m_Resolution: 1
    m_BakeResolution: 50
    m_TextureWidth: 1024
    m_TextureHeight: 1024
    m_AOMaxDistance: 1
    m_Padding: 2
    m_CompAOExponent: 0
    m_LightmapParameters: {fileID: 0}
    m_TextureCompression: 0
    m_FinalGather: 0
    m_FinalGatherRayCount: 1024
  m_LightmapSnapshot: {fileID: 0}
  m_RuntimeCPUUsage: 25
--- !u!1 &5
GameObject:
  m_ObjectHideFlags: 0
  m_PrefabParentObject: {fileID: 0}
  m_PrefabInternal: {fileID: 0}
  serializedVersion: 4
  m_Component:
  - 4: {fileID: 22}
  - 33: {fileID: 42}
  - 64: {fileID: 44}
  - 23: {fileID: 40}
  m_Layer: 0
  m_Name: Plane
  m_TagString: Untagged
  m_Icon: {fileID: 0}
  m_NavMeshLayer: 0
  m_StaticEditorFlags: 0
  m_IsActive: 1
--- !u!1 &7
GameObject:
  m_ObjectHideFlags: 0
  m_PrefabParentObject: {fileID: 0}
  m_PrefabInternal: {fileID: 0}
  serializedVersion: 4
  m_Component:
  - 4: {fileID: 24}
  - 20: {fileID: 39}
  - 92: {fileID: 46}
  - 124: {fileID: 50}
  - 81: {fileID: 45}
  m_Layer: 0
  m_Name: Main Camera
  m_TagString: MainCamera
  m_Icon: {fileID: 0}
  m_NavMeshLayer: 0
  m_StaticEditorFlags: 0
  m_IsActive: 1
--- !u!1 &8
GameObject:
  m_ObjectHideFlags: 0
  m_PrefabParentObject: {fileID: 0}
  m_PrefabInternal: {fileID: 0}
  serializedVersion: 4
  m_Component:
  - 4: {fileID: 25}
  m_Layer: 0
  m_Name: points
  m_TagString: Untagged
  m_Icon: {fileID: 0}
  m_NavMeshLayer: 0
  m_StaticEditorFlags: 0
  m_IsActive: 1
--- !u!1 &9
GameObject:
  m_ObjectHideFlags: 0
  m_PrefabParentObject: {fileID: 100000, guid: cd3ca65ff68044eba9e1db189934b860, type: 2}
  m_PrefabInternal: {fileID: 68}
  serializedVersion: 4
  m_Component:
  - 4: {fileID: 32}
  - 114: {fileID: 60}
  m_Layer: 0
  m_Name: Point1
  m_TagString: Untagged
  m_Icon: {fileID: 0}
  m_NavMeshLayer: 0
  m_StaticEditorFlags: 0
  m_IsActive: 1
--- !u!1 &10
GameObject:
  m_ObjectHideFlags: 0
  m_PrefabParentObject: {fileID: 0}
  m_PrefabInternal: {fileID: 0}
  serializedVersion: 4
  m_Component:
  - 4: {fileID: 33}
  - 108: {fileID: 47}
  m_Layer: 0
  m_Name: Flashlight
  m_TagString: Untagged
  m_Icon: {fileID: 0}
  m_NavMeshLayer: 0
  m_StaticEditorFlags: 0
  m_IsActive: 1
--- !u!1 &11
GameObject:
  m_ObjectHideFlags: 0
  m_PrefabParentObject: {fileID: 0}
  m_PrefabInternal: {fileID: 0}
  serializedVersion: 4
  m_Component:
  - 4: {fileID: 35}
  - 114: {fileID: 61}
  m_Layer: 0
  m_Name: Container
  m_TagString: Untagged
  m_Icon: {fileID: 0}
  m_NavMeshLayer: 0
  m_StaticEditorFlags: 0
  m_IsActive: 1
--- !u!1 &12
GameObject:
  m_ObjectHideFlags: 0
  m_PrefabParentObject: {fileID: 0}
  m_PrefabInternal: {fileID: 0}
  serializedVersion: 4
  m_Component:
  - 4: {fileID: 34}
  - 33: {fileID: 43}
  - 136: {fileID: 53}
  - 23: {fileID: 41}
  m_Layer: 0
  m_Name: Capsule
  m_TagString: Untagged
  m_Icon: {fileID: 0}
  m_NavMeshLayer: 0
  m_StaticEditorFlags: 0
  m_IsActive: 1
--- !u!1 &13
GameObject:
  m_ObjectHideFlags: 0
  m_PrefabParentObject: {fileID: 0}
  m_PrefabInternal: {fileID: 0}
  serializedVersion: 4
  m_Component:
  - 4: {fileID: 36}
  - 108: {fileID: 48}
  m_Layer: 0
  m_Name: Spotlight
  m_TagString: Untagged
  m_Icon: {fileID: 0}
  m_NavMeshLayer: 0
  m_StaticEditorFlags: 0
  m_IsActive: 1
--- !u!1 &14
GameObject:
  m_ObjectHideFlags: 0
  m_PrefabParentObject: {fileID: 0}
  m_PrefabInternal: {fileID: 0}
  serializedVersion: 4
  m_Component:
  - 4: {fileID: 37}
  - 108: {fileID: 49}
  m_Layer: 0
  m_Name: Directional light
  m_TagString: Untagged
  m_Icon: {fileID: 0}
  m_NavMeshLayer: 0
  m_StaticEditorFlags: 0
  m_IsActive: 1
--- !u!1 &15
GameObject:
  m_ObjectHideFlags: 0
  m_PrefabParentObject: {fileID: 0}
  m_PrefabInternal: {fileID: 0}
  serializedVersion: 4
  m_Component:
  - 4: {fileID: 38}
  - 132: {fileID: 52}
  m_Layer: 0
  m_Name: GUI Text
  m_TagString: Untagged
  m_Icon: {fileID: 0}
  m_NavMeshLayer: 0
  m_StaticEditorFlags: 0
  m_IsActive: 1
--- !u!1 &16
GameObject:
  m_ObjectHideFlags: 0
  m_PrefabParentObject: {fileID: 100000, guid: cd3ca65ff68044eba9e1db189934b860, type: 2}
  m_PrefabInternal: {fileID: 66}
  serializedVersion: 4
  m_Component:
  - 4: {fileID: 30}
  - 114: {fileID: 58}
  m_Layer: 0
  m_Name: Point3
  m_TagString: Untagged
  m_Icon: {fileID: 0}
  m_NavMeshLayer: 0
  m_StaticEditorFlags: 0
  m_IsActive: 1
--- !u!1 &17
GameObject:
  m_ObjectHideFlags: 0
  m_PrefabParentObject: {fileID: 100000, guid: cd3ca65ff68044eba9e1db189934b860, type: 2}
  m_PrefabInternal: {fileID: 67}
  serializedVersion: 4
  m_Component:
  - 4: {fileID: 31}
  - 114: {fileID: 59}
  m_Layer: 0
  m_Name: Point2
  m_TagString: Untagged
  m_Icon: {fileID: 0}
  m_NavMeshLayer: 0
  m_StaticEditorFlags: 0
  m_IsActive: 1
--- !u!1 &18
GameObject:
  m_ObjectHideFlags: 0
  m_PrefabParentObject: {fileID: 100000, guid: cd3ca65ff68044eba9e1db189934b860, type: 2}
  m_PrefabInternal: {fileID: 65}
  serializedVersion: 4
  m_Component:
  - 4: {fileID: 29}
  - 114: {fileID: 57}
  m_Layer: 0
  m_Name: Point4
  m_TagString: Untagged
  m_Icon: {fileID: 0}
  m_NavMeshLayer: 0
  m_StaticEditorFlags: 0
  m_IsActive: 1
--- !u!1 &19
GameObject:
  m_ObjectHideFlags: 0
  m_PrefabParentObject: {fileID: 100000, guid: cd3ca65ff68044eba9e1db189934b860, type: 2}
  m_PrefabInternal: {fileID: 64}
  serializedVersion: 4
  m_Component:
  - 4: {fileID: 28}
  - 114: {fileID: 56}
  m_Layer: 0
  m_Name: Point5
  m_TagString: Untagged
  m_Icon: {fileID: 0}
  m_NavMeshLayer: 0
  m_StaticEditorFlags: 0
  m_IsActive: 1
--- !u!1 &20
GameObject:
  m_ObjectHideFlags: 0
  m_PrefabParentObject: {fileID: 100000, guid: cd3ca65ff68044eba9e1db189934b860, type: 2}
  m_PrefabInternal: {fileID: 63}
  serializedVersion: 4
  m_Component:
  - 4: {fileID: 27}
  - 114: {fileID: 55}
  m_Layer: 0
  m_Name: Point6
  m_TagString: Untagged
  m_Icon: {fileID: 0}
  m_NavMeshLayer: 0
  m_StaticEditorFlags: 0
  m_IsActive: 1
--- !u!1 &21
GameObject:
  m_ObjectHideFlags: 0
  m_PrefabParentObject: {fileID: 100000, guid: cd3ca65ff68044eba9e1db189934b860, type: 2}
  m_PrefabInternal: {fileID: 62}
  serializedVersion: 4
  m_Component:
  - 4: {fileID: 26}
  - 114: {fileID: 54}
  m_Layer: 0
  m_Name: Point7
  m_TagString: Untagged
  m_Icon: {fileID: 0}
  m_NavMeshLayer: 0
  m_StaticEditorFlags: 0
  m_IsActive: 1
--- !u!4 &22
Transform:
  m_ObjectHideFlags: 0
  m_PrefabParentObject: {fileID: 0}
  m_PrefabInternal: {fileID: 0}
  m_GameObject: {fileID: 5}
  m_LocalRotation: {x: 0, y: 1, z: 0, w: -2.82129974e-07}
  m_LocalPosition: {x: 5.2262169e-07, y: -.872293115, z: .926207304}
  m_LocalScale: {x: 1.56199145, y: .858441293, z: 1.52623427}
  m_Children: []
  m_Father: {fileID: 0}
  m_RootOrder: 4
--- !u!4 &24
Transform:
  m_ObjectHideFlags: 0
  m_PrefabParentObject: {fileID: 0}
  m_PrefabInternal: {fileID: 0}
  m_GameObject: {fileID: 7}
  m_LocalRotation: {x: .464432955, y: 0, z: 0, w: .885608315}
  m_LocalPosition: {x: 0, y: 20.8662014, z: -16.1747417}
  m_LocalScale: {x: 1, y: 1, z: 1}
  m_Children: []
  m_Father: {fileID: 0}
  m_RootOrder: 3
--- !u!4 &25
Transform:
  m_ObjectHideFlags: 0
  m_PrefabParentObject: {fileID: 0}
  m_PrefabInternal: {fileID: 0}
  m_GameObject: {fileID: 8}
  m_LocalRotation: {x: 0, y: 0, z: 0, w: 1}
  m_LocalPosition: {x: 0, y: 0, z: 0}
  m_LocalScale: {x: 1, y: 1, z: 1}
  m_Children:
  - {fileID: 26}
  - {fileID: 27}
  - {fileID: 28}
  - {fileID: 29}
  - {fileID: 30}
  - {fileID: 31}
  - {fileID: 32}
  m_Father: {fileID: 0}
  m_RootOrder: 5
--- !u!4 &26
Transform:
  m_ObjectHideFlags: 0
  m_PrefabParentObject: {fileID: 400000, guid: cd3ca65ff68044eba9e1db189934b860, type: 2}
  m_PrefabInternal: {fileID: 62}
  m_GameObject: {fileID: 21}
  m_LocalRotation: {x: 0, y: 0, z: 0, w: 1}
  m_LocalPosition: {x: 5.94711494, y: -.00390625, z: 6.71898508}
  m_LocalScale: {x: 1, y: 1, z: 1}
  m_Children: []
  m_Father: {fileID: 25}
  m_RootOrder: 0
--- !u!4 &27
Transform:
  m_ObjectHideFlags: 0
  m_PrefabParentObject: {fileID: 400000, guid: cd3ca65ff68044eba9e1db189934b860, type: 2}
  m_PrefabInternal: {fileID: 63}
  m_GameObject: {fileID: 20}
  m_LocalRotation: {x: 0, y: 0, z: 0, w: 1}
  m_LocalPosition: {x: 5.34703779, y: -.00439453078, z: 3.75610089}
  m_LocalScale: {x: 1, y: 1, z: 1}
  m_Children: []
  m_Father: {fileID: 25}
  m_RootOrder: 1
--- !u!4 &28
Transform:
  m_ObjectHideFlags: 0
  m_PrefabParentObject: {fileID: 400000, guid: cd3ca65ff68044eba9e1db189934b860, type: 2}
  m_PrefabInternal: {fileID: 64}
  m_GameObject: {fileID: 19}
  m_LocalRotation: {x: 0, y: 0, z: 0, w: 1}
  m_LocalPosition: {x: 3.58741093, y: -.00341796898, z: 3.51189494}
  m_LocalScale: {x: 1, y: 1, z: 1}
  m_Children: []
  m_Father: {fileID: 25}
  m_RootOrder: 2
--- !u!4 &29
Transform:
  m_ObjectHideFlags: 0
  m_PrefabParentObject: {fileID: 400000, guid: cd3ca65ff68044eba9e1db189934b860, type: 2}
  m_PrefabInternal: {fileID: 65}
  m_GameObject: {fileID: 18}
  m_LocalRotation: {x: 0, y: 0, z: 0, w: 1}
  m_LocalPosition: {x: -.373905391, y: -.00292968797, z: 5.73631382}
  m_LocalScale: {x: 1, y: 1, z: 1}
  m_Children: []
  m_Father: {fileID: 25}
  m_RootOrder: 3
--- !u!4 &30
Transform:
  m_ObjectHideFlags: 0
  m_PrefabParentObject: {fileID: 400000, guid: cd3ca65ff68044eba9e1db189934b860, type: 2}
  m_PrefabInternal: {fileID: 66}
  m_GameObject: {fileID: 16}
  m_LocalRotation: {x: 0, y: 0, z: 0, w: 1}
  m_LocalPosition: {x: -3.5528841, y: -.00341796898, z: 3.24111795}
  m_LocalScale: {x: 1, y: 1, z: 1}
  m_Children: []
  m_Father: {fileID: 25}
  m_RootOrder: 4
--- !u!4 &31
Transform:
  m_ObjectHideFlags: 0
  m_PrefabParentObject: {fileID: 400000, guid: cd3ca65ff68044eba9e1db189934b860, type: 2}
  m_PrefabInternal: {fileID: 67}
  m_GameObject: {fileID: 17}
  m_LocalRotation: {x: 0, y: 0, z: 0, w: 1}
  m_LocalPosition: {x: -.986998081, y: -.00244140602, z: -4.29386806}
  m_LocalScale: {x: 1, y: 1, z: 1}
  m_Children: []
  m_Father: {fileID: 25}
  m_RootOrder: 5
--- !u!4 &32
Transform:
  m_ObjectHideFlags: 0
  m_PrefabParentObject: {fileID: 400000, guid: cd3ca65ff68044eba9e1db189934b860, type: 2}
  m_PrefabInternal: {fileID: 68}
  m_GameObject: {fileID: 9}
  m_LocalRotation: {x: 0, y: 0, z: 0, w: 1}
  m_LocalPosition: {x: -5.93560314, y: -.00146484375, z: -4.89880991}
  m_LocalScale: {x: 1, y: 1, z: 1}
  m_Children: []
  m_Father: {fileID: 25}
  m_RootOrder: 6
--- !u!4 &33
Transform:
  m_ObjectHideFlags: 0
  m_PrefabParentObject: {fileID: 0}
  m_PrefabInternal: {fileID: 0}
  m_GameObject: {fileID: 10}
  m_LocalRotation: {x: .143606678, y: 0, z: 0, w: .989634931}
  m_LocalPosition: {x: -.132859707, y: -.176043108, z: .627072334}
  m_LocalScale: {x: 1, y: 1, z: 1}
  m_Children: []
  m_Father: {fileID: 34}
  m_RootOrder: 0
--- !u!4 &34
Transform:
  m_ObjectHideFlags: 0
  m_PrefabParentObject: {fileID: 0}
  m_PrefabInternal: {fileID: 0}
  m_GameObject: {fileID: 12}
  m_LocalRotation: {x: 0, y: 0, z: 0, w: 1}
  m_LocalPosition: {x: 0, y: 0, z: 0}
  m_LocalScale: {x: 1, y: 1, z: 1}
  m_Children:
  - {fileID: 33}
  - {fileID: 36}
  m_Father: {fileID: 35}
  m_RootOrder: 0
--- !u!4 &35
Transform:
  m_ObjectHideFlags: 0
  m_PrefabParentObject: {fileID: 0}
  m_PrefabInternal: {fileID: 0}
  m_GameObject: {fileID: 11}
  m_LocalRotation: {x: 8.83940374e-05, y: .804703236, z: -.000119814198, w: .593677282}
  m_LocalPosition: {x: -5.93560314, y: -.00146484398, z: -4.89880991}
  m_LocalScale: {x: 1, y: 1, z: 1}
  m_Children:
  - {fileID: 34}
  m_Father: {fileID: 0}
  m_RootOrder: 0
--- !u!4 &36
Transform:
  m_ObjectHideFlags: 0
  m_PrefabParentObject: {fileID: 0}
  m_PrefabInternal: {fileID: 0}
  m_GameObject: {fileID: 13}
  m_LocalRotation: {x: .707106829, y: 0, z: 0, w: .707106709}
  m_LocalPosition: {x: .052508831, y: 5.93020725, z: -.0242023468}
  m_LocalScale: {x: 1, y: 1, z: 1}
  m_Children: []
  m_Father: {fileID: 34}
  m_RootOrder: 1
--- !u!4 &37
Transform:
  m_ObjectHideFlags: 0
  m_PrefabParentObject: {fileID: 0}
  m_PrefabInternal: {fileID: 0}
  m_GameObject: {fileID: 14}
  m_LocalRotation: {x: .707106709, y: -1.0658141e-14, z: -1.0658141e-14, w: .707106829}
  m_LocalPosition: {x: 11.8666267, y: 10.3097134, z: -7.14929008}
  m_LocalScale: {x: 1, y: 1, z: 1}
  m_Children: []
  m_Father: {fileID: 0}
  m_RootOrder: 1
--- !u!4 &38
Transform:
  m_ObjectHideFlags: 0
  m_PrefabParentObject: {fileID: 0}
  m_PrefabInternal: {fileID: 0}
  m_GameObject: {fileID: 15}
  m_LocalRotation: {x: 0, y: 0, z: 0, w: 1}
  m_LocalPosition: {x: .5, y: .5, z: 0}
  m_LocalScale: {x: 1, y: 1, z: 1}
  m_Children: []
  m_Father: {fileID: 0}
  m_RootOrder: 2
--- !u!20 &39
Camera:
  m_ObjectHideFlags: 0
  m_PrefabParentObject: {fileID: 0}
  m_PrefabInternal: {fileID: 0}
  m_GameObject: {fileID: 7}
  m_Enabled: 1
  serializedVersion: 2
  m_ClearFlags: 1
  m_BackGroundColor: {r: .492307663, g: .492307663, b: .492307663, a: .0196078438}
  m_NormalizedViewPortRect:
    serializedVersion: 2
    x: 0
    y: 0
    width: 1
    height: 1
  near clip plane: .300000012
  far clip plane: 1000
  field of view: 33.8187714
  orthographic: 0
  orthographic size: 100
  m_Depth: -1
  m_CullingMask:
    serializedVersion: 2
    m_Bits: 4294967295
  m_RenderingPath: -1
  m_TargetTexture: {fileID: 0}
  m_TargetDisplay: 0
  m_HDR: 0
  m_OcclusionCulling: 1
  m_StereoConvergence: 10
  m_StereoSeparation: .0219999999
--- !u!23 &40
MeshRenderer:
  m_ObjectHideFlags: 0
  m_PrefabParentObject: {fileID: 0}
  m_PrefabInternal: {fileID: 0}
  m_GameObject: {fileID: 5}
  m_Enabled: 1
  m_CastShadows: 1
  m_ReceiveShadows: 1
  m_Materials:
  - {fileID: 2100000, guid: 9d9cec75ac3b14314b3ac5db805860a1, type: 2}
  m_SubsetIndices: 
  m_StaticBatchRoot: {fileID: 0}
  m_UseLightProbes: 0
  m_ReflectionProbeUsage: 1
  m_ProbeAnchor: {fileID: 0}
  m_ScaleInLightmap: 1
  m_PreserveUVs: 0
  m_ImportantGI: 0
  m_AutoUVMaxDistance: .5
  m_AutoUVMaxAngle: 89
  m_LightmapParameters: {fileID: 0}
  m_SortingLayerID: 0
  m_SortingOrder: 0
--- !u!23 &41
MeshRenderer:
  m_ObjectHideFlags: 0
  m_PrefabParentObject: {fileID: 0}
  m_PrefabInternal: {fileID: 0}
  m_GameObject: {fileID: 12}
  m_Enabled: 1
  m_CastShadows: 1
  m_ReceiveShadows: 1
  m_Materials:
  - {fileID: 2100000, guid: cbf7c9fa304824746bf72541ec1bcb87, type: 2}
  m_SubsetIndices: 
  m_StaticBatchRoot: {fileID: 0}
  m_UseLightProbes: 0
  m_ReflectionProbeUsage: 1
  m_ProbeAnchor: {fileID: 0}
  m_ScaleInLightmap: 1
  m_PreserveUVs: 0
  m_ImportantGI: 0
  m_AutoUVMaxDistance: .5
  m_AutoUVMaxAngle: 89
  m_LightmapParameters: {fileID: 0}
  m_SortingLayerID: 0
  m_SortingOrder: 0
--- !u!33 &42
MeshFilter:
  m_ObjectHideFlags: 0
  m_PrefabParentObject: {fileID: 0}
  m_PrefabInternal: {fileID: 0}
  m_GameObject: {fileID: 5}
  m_Mesh: {fileID: 10209, guid: 0000000000000000e000000000000000, type: 0}
--- !u!33 &43
MeshFilter:
  m_ObjectHideFlags: 0
  m_PrefabParentObject: {fileID: 0}
  m_PrefabInternal: {fileID: 0}
  m_GameObject: {fileID: 12}
  m_Mesh: {fileID: 10208, guid: 0000000000000000e000000000000000, type: 0}
--- !u!64 &44
MeshCollider:
  m_ObjectHideFlags: 0
  m_PrefabParentObject: {fileID: 0}
  m_PrefabInternal: {fileID: 0}
  m_GameObject: {fileID: 5}
  m_Material: {fileID: 0}
  m_IsTrigger: 0
  m_Enabled: 1
  serializedVersion: 2
  m_Convex: 0
  m_Mesh: {fileID: 10209, guid: 0000000000000000e000000000000000, type: 0}
--- !u!81 &45
AudioListener:
  m_ObjectHideFlags: 0
  m_PrefabParentObject: {fileID: 0}
  m_PrefabInternal: {fileID: 0}
  m_GameObject: {fileID: 7}
  m_Enabled: 1
--- !u!92 &46
Behaviour:
  m_ObjectHideFlags: 0
  m_PrefabParentObject: {fileID: 0}
  m_PrefabInternal: {fileID: 0}
  m_GameObject: {fileID: 7}
  m_Enabled: 1
--- !u!108 &47
Light:
  m_ObjectHideFlags: 0
  m_PrefabParentObject: {fileID: 0}
  m_PrefabInternal: {fileID: 0}
  m_GameObject: {fileID: 10}
  m_Enabled: 1
  serializedVersion: 6
  m_Type: 0
  m_Color: {r: 1, g: 1, b: 1, a: 1}
  m_Intensity: 16
  m_Range: 11.1154518
  m_SpotAngle: 49.698555
  m_CookieSize: 99.39711
  m_Shadows:
    m_Type: 1
    m_Resolution: -1
    m_Strength: .800000012
    m_Bias: .0500000007
    m_NormalBias: .400000006
  m_Cookie: {fileID: 0}
  m_DrawHalo: 0
  m_Flare: {fileID: 0}
  m_RenderMode: 0
  m_CullingMask:
    serializedVersion: 2
    m_Bits: 4294967295
  m_Lightmapping: 1
  m_BounceIntensity: 1
  m_ShadowRadius: 0
  m_ShadowAngle: 0
  m_AreaSize: {x: 1, y: 1}
--- !u!108 &48
Light:
  m_ObjectHideFlags: 0
  m_PrefabParentObject: {fileID: 0}
  m_PrefabInternal: {fileID: 0}
  m_GameObject: {fileID: 13}
  m_Enabled: 1
  serializedVersion: 6
  m_Type: 0
  m_Color: {r: 1, g: 1, b: 1, a: 1}
  m_Intensity: 3.74570489
  m_Range: 47.8322639
  m_SpotAngle: 42.0400124
  m_CookieSize: 84.0800247
  m_Shadows:
    m_Type: 1
    m_Resolution: -1
    m_Strength: .800000012
    m_Bias: .0500000007
    m_NormalBias: .400000006
  m_Cookie: {fileID: 0}
  m_DrawHalo: 0
  m_Flare: {fileID: 0}
  m_RenderMode: 0
  m_CullingMask:
    serializedVersion: 2
    m_Bits: 4294967295
  m_Lightmapping: 1
  m_BounceIntensity: 1
  m_ShadowRadius: 0
  m_ShadowAngle: 0
  m_AreaSize: {x: 1, y: 1}
--- !u!108 &49
Light:
  m_ObjectHideFlags: 0
  m_PrefabParentObject: {fileID: 0}
  m_PrefabInternal: {fileID: 0}
  m_GameObject: {fileID: 14}
  m_Enabled: 1
  serializedVersion: 6
  m_Type: 1
  m_Color: {r: 1, g: 1, b: 1, a: 1}
  m_Intensity: 1
  m_Range: 10
  m_SpotAngle: 30
  m_CookieSize: 60
  m_Shadows:
    m_Type: 0
    m_Resolution: -1
    m_Strength: .800000012
    m_Bias: .0500000007
    m_NormalBias: .400000006
  m_Cookie: {fileID: 0}
  m_DrawHalo: 0
  m_Flare: {fileID: 0}
  m_RenderMode: 0
  m_CullingMask:
    serializedVersion: 2
    m_Bits: 4294967295
  m_Lightmapping: 1
  m_BounceIntensity: 1
  m_ShadowRadius: 0
  m_ShadowAngle: 0
  m_AreaSize: {x: 1, y: 1}
--- !u!124 &50
Behaviour:
  m_ObjectHideFlags: 0
  m_PrefabParentObject: {fileID: 0}
  m_PrefabInternal: {fileID: 0}
  m_GameObject: {fileID: 7}
  m_Enabled: 1
--- !u!132 &52
GUIText:
  m_ObjectHideFlags: 0
  m_PrefabParentObject: {fileID: 0}
  m_PrefabInternal: {fileID: 0}
  m_GameObject: {fileID: 15}
  m_Enabled: 1
  serializedVersion: 3
  m_Text: 'Slide to move object along path:'
  m_Anchor: 0
  m_Alignment: 0
  m_PixelOffset: {x: -88.0984879, y: -71.3785629}
  m_LineSpacing: 1
  m_TabSize: 4
  m_Font: {fileID: 10102, guid: 0000000000000000e000000000000000, type: 0}
  m_Material: {fileID: 0}
  m_FontSize: 0
  m_FontStyle: 0
  m_Color:
    serializedVersion: 2
    rgba: 4294967295
  m_PixelCorrect: 1
  m_RichText: 1
--- !u!136 &53
CapsuleCollider:
  m_ObjectHideFlags: 0
  m_PrefabParentObject: {fileID: 0}
  m_PrefabInternal: {fileID: 0}
  m_GameObject: {fileID: 12}
  m_Material: {fileID: 0}
  m_IsTrigger: 0
  m_Enabled: 1
  m_Radius: .500000119
  m_Height: 2
  m_Direction: 1
  m_Center: {x: 5.96046448e-08, y: 0, z: -8.94069672e-08}
--- !u!114 &54
MonoBehaviour:
  m_ObjectHideFlags: 0
  m_PrefabParentObject: {fileID: 11400000, guid: cd3ca65ff68044eba9e1db189934b860,
    type: 2}
  m_PrefabInternal: {fileID: 62}
  m_GameObject: {fileID: 21}
  m_Enabled: 1
  m_EditorHideFlags: 0
  m_Script: {fileID: 11500000, guid: f01cb365286e4437492915c3d82d36ec, type: 3}
  m_Name: 
  m_EditorClassIdentifier: 
--- !u!114 &55
MonoBehaviour:
  m_ObjectHideFlags: 0
  m_PrefabParentObject: {fileID: 11400000, guid: cd3ca65ff68044eba9e1db189934b860,
    type: 2}
  m_PrefabInternal: {fileID: 63}
  m_GameObject: {fileID: 20}
  m_Enabled: 1
  m_EditorHideFlags: 0
  m_Script: {fileID: 11500000, guid: f01cb365286e4437492915c3d82d36ec, type: 3}
  m_Name: 
  m_EditorClassIdentifier: 
--- !u!114 &56
MonoBehaviour:
  m_ObjectHideFlags: 0
  m_PrefabParentObject: {fileID: 11400000, guid: cd3ca65ff68044eba9e1db189934b860,
    type: 2}
  m_PrefabInternal: {fileID: 64}
  m_GameObject: {fileID: 19}
  m_Enabled: 1
  m_EditorHideFlags: 0
  m_Script: {fileID: 11500000, guid: f01cb365286e4437492915c3d82d36ec, type: 3}
  m_Name: 
  m_EditorClassIdentifier: 
--- !u!114 &57
MonoBehaviour:
  m_ObjectHideFlags: 0
  m_PrefabParentObject: {fileID: 11400000, guid: cd3ca65ff68044eba9e1db189934b860,
    type: 2}
  m_PrefabInternal: {fileID: 65}
  m_GameObject: {fileID: 18}
  m_Enabled: 1
  m_EditorHideFlags: 0
  m_Script: {fileID: 11500000, guid: f01cb365286e4437492915c3d82d36ec, type: 3}
  m_Name: 
  m_EditorClassIdentifier: 
--- !u!114 &58
MonoBehaviour:
  m_ObjectHideFlags: 0
  m_PrefabParentObject: {fileID: 11400000, guid: cd3ca65ff68044eba9e1db189934b860,
    type: 2}
  m_PrefabInternal: {fileID: 66}
  m_GameObject: {fileID: 16}
  m_Enabled: 1
  m_EditorHideFlags: 0
  m_Script: {fileID: 11500000, guid: f01cb365286e4437492915c3d82d36ec, type: 3}
  m_Name: 
  m_EditorClassIdentifier: 
--- !u!114 &59
MonoBehaviour:
  m_ObjectHideFlags: 0
  m_PrefabParentObject: {fileID: 11400000, guid: cd3ca65ff68044eba9e1db189934b860,
    type: 2}
  m_PrefabInternal: {fileID: 67}
  m_GameObject: {fileID: 17}
  m_Enabled: 1
  m_EditorHideFlags: 0
  m_Script: {fileID: 11500000, guid: f01cb365286e4437492915c3d82d36ec, type: 3}
  m_Name: 
  m_EditorClassIdentifier: 
--- !u!114 &60
MonoBehaviour:
  m_ObjectHideFlags: 0
  m_PrefabParentObject: {fileID: 11400000, guid: cd3ca65ff68044eba9e1db189934b860,
    type: 2}
  m_PrefabInternal: {fileID: 68}
  m_GameObject: {fileID: 9}
  m_Enabled: 1
  m_EditorHideFlags: 0
  m_Script: {fileID: 11500000, guid: f01cb365286e4437492915c3d82d36ec, type: 3}
  m_Name: 
  m_EditorClassIdentifier: 
--- !u!114 &61
MonoBehaviour:
  m_ObjectHideFlags: 0
  m_PrefabParentObject: {fileID: 0}
  m_PrefabInternal: {fileID: 0}
  m_GameObject: {fileID: 11}
  m_Enabled: 1
  m_EditorHideFlags: 0
  m_Script: {fileID: 11500000, guid: 14f81683a8af9484faa3c51b4c65f703, type: 3}
  m_Name: 
  m_EditorClassIdentifier: 
  path:
  - {fileID: 32}
  - {fileID: 31}
  - {fileID: 30}
  - {fileID: 29}
  - {fileID: 28}
  - {fileID: 27}
  - {fileID: 26}
  value: 0
--- !u!1001 &62
Prefab:
  m_ObjectHideFlags: 0
  serializedVersion: 2
  m_Modification:
    m_TransformParent: {fileID: 25}
    m_Modifications:
    - target: {fileID: 100000, guid: cd3ca65ff68044eba9e1db189934b860, type: 2}
      propertyPath: m_Name
      value: Point7
      objectReference: {fileID: 0}
    - target: {fileID: 400000, guid: cd3ca65ff68044eba9e1db189934b860, type: 2}
      propertyPath: m_LocalRotation.x
      value: 0
      objectReference: {fileID: 0}
    - target: {fileID: 400000, guid: cd3ca65ff68044eba9e1db189934b860, type: 2}
      propertyPath: m_LocalRotation.y
      value: 0
      objectReference: {fileID: 0}
    - target: {fileID: 400000, guid: cd3ca65ff68044eba9e1db189934b860, type: 2}
      propertyPath: m_LocalRotation.z
      value: 0
      objectReference: {fileID: 0}
    - target: {fileID: 400000, guid: cd3ca65ff68044eba9e1db189934b860, type: 2}
      propertyPath: m_LocalRotation.w
      value: 1
      objectReference: {fileID: 0}
    - target: {fileID: 400000, guid: cd3ca65ff68044eba9e1db189934b860, type: 2}
      propertyPath: m_LocalPosition.x
      value: 5.94711494
      objectReference: {fileID: 0}
    - target: {fileID: 400000, guid: cd3ca65ff68044eba9e1db189934b860, type: 2}
      propertyPath: m_LocalPosition.y
      value: -.00390625
      objectReference: {fileID: 0}
    - target: {fileID: 400000, guid: cd3ca65ff68044eba9e1db189934b860, type: 2}
      propertyPath: m_LocalPosition.z
      value: 6.71898508
      objectReference: {fileID: 0}
    m_RemovedComponents: []
  m_ParentPrefab: {fileID: 100100000, guid: cd3ca65ff68044eba9e1db189934b860, type: 2}
  m_RootGameObject: {fileID: 21}
  m_IsPrefabParent: 0
--- !u!1001 &63
Prefab:
  m_ObjectHideFlags: 0
  serializedVersion: 2
  m_Modification:
    m_TransformParent: {fileID: 25}
    m_Modifications:
    - target: {fileID: 100000, guid: cd3ca65ff68044eba9e1db189934b860, type: 2}
      propertyPath: m_Name
      value: Point6
      objectReference: {fileID: 0}
    - target: {fileID: 400000, guid: cd3ca65ff68044eba9e1db189934b860, type: 2}
      propertyPath: m_LocalRotation.x
      value: 0
      objectReference: {fileID: 0}
    - target: {fileID: 400000, guid: cd3ca65ff68044eba9e1db189934b860, type: 2}
      propertyPath: m_LocalRotation.y
      value: 0
      objectReference: {fileID: 0}
    - target: {fileID: 400000, guid: cd3ca65ff68044eba9e1db189934b860, type: 2}
      propertyPath: m_LocalRotation.z
      value: 0
      objectReference: {fileID: 0}
    - target: {fileID: 400000, guid: cd3ca65ff68044eba9e1db189934b860, type: 2}
      propertyPath: m_LocalRotation.w
      value: 1
      objectReference: {fileID: 0}
    - target: {fileID: 400000, guid: cd3ca65ff68044eba9e1db189934b860, type: 2}
      propertyPath: m_LocalPosition.x
      value: 5.34703779
      objectReference: {fileID: 0}
    - target: {fileID: 400000, guid: cd3ca65ff68044eba9e1db189934b860, type: 2}
      propertyPath: m_LocalPosition.y
      value: -.00439453078
      objectReference: {fileID: 0}
    - target: {fileID: 400000, guid: cd3ca65ff68044eba9e1db189934b860, type: 2}
      propertyPath: m_LocalPosition.z
      value: 3.75610089
      objectReference: {fileID: 0}
    m_RemovedComponents: []
  m_ParentPrefab: {fileID: 100100000, guid: cd3ca65ff68044eba9e1db189934b860, type: 2}
  m_RootGameObject: {fileID: 20}
  m_IsPrefabParent: 0
--- !u!1001 &64
Prefab:
  m_ObjectHideFlags: 0
  serializedVersion: 2
  m_Modification:
    m_TransformParent: {fileID: 25}
    m_Modifications:
    - target: {fileID: 100000, guid: cd3ca65ff68044eba9e1db189934b860, type: 2}
      propertyPath: m_Name
      value: Point5
      objectReference: {fileID: 0}
    - target: {fileID: 400000, guid: cd3ca65ff68044eba9e1db189934b860, type: 2}
      propertyPath: m_LocalRotation.x
      value: 0
      objectReference: {fileID: 0}
    - target: {fileID: 400000, guid: cd3ca65ff68044eba9e1db189934b860, type: 2}
      propertyPath: m_LocalRotation.y
      value: 0
      objectReference: {fileID: 0}
    - target: {fileID: 400000, guid: cd3ca65ff68044eba9e1db189934b860, type: 2}
      propertyPath: m_LocalRotation.z
      value: 0
      objectReference: {fileID: 0}
    - target: {fileID: 400000, guid: cd3ca65ff68044eba9e1db189934b860, type: 2}
      propertyPath: m_LocalRotation.w
      value: 1
      objectReference: {fileID: 0}
    - target: {fileID: 400000, guid: cd3ca65ff68044eba9e1db189934b860, type: 2}
      propertyPath: m_LocalPosition.x
      value: 3.58741093
      objectReference: {fileID: 0}
    - target: {fileID: 400000, guid: cd3ca65ff68044eba9e1db189934b860, type: 2}
      propertyPath: m_LocalPosition.y
      value: -.00341796898
      objectReference: {fileID: 0}
    - target: {fileID: 400000, guid: cd3ca65ff68044eba9e1db189934b860, type: 2}
      propertyPath: m_LocalPosition.z
      value: 3.51189494
      objectReference: {fileID: 0}
    m_RemovedComponents: []
  m_ParentPrefab: {fileID: 100100000, guid: cd3ca65ff68044eba9e1db189934b860, type: 2}
  m_RootGameObject: {fileID: 19}
  m_IsPrefabParent: 0
--- !u!1001 &65
Prefab:
  m_ObjectHideFlags: 0
  serializedVersion: 2
  m_Modification:
    m_TransformParent: {fileID: 25}
    m_Modifications:
    - target: {fileID: 100000, guid: cd3ca65ff68044eba9e1db189934b860, type: 2}
      propertyPath: m_Name
      value: Point4
      objectReference: {fileID: 0}
    - target: {fileID: 400000, guid: cd3ca65ff68044eba9e1db189934b860, type: 2}
      propertyPath: m_LocalRotation.x
      value: 0
      objectReference: {fileID: 0}
    - target: {fileID: 400000, guid: cd3ca65ff68044eba9e1db189934b860, type: 2}
      propertyPath: m_LocalRotation.y
      value: 0
      objectReference: {fileID: 0}
    - target: {fileID: 400000, guid: cd3ca65ff68044eba9e1db189934b860, type: 2}
      propertyPath: m_LocalRotation.z
      value: 0
      objectReference: {fileID: 0}
    - target: {fileID: 400000, guid: cd3ca65ff68044eba9e1db189934b860, type: 2}
      propertyPath: m_LocalRotation.w
      value: 1
      objectReference: {fileID: 0}
    - target: {fileID: 400000, guid: cd3ca65ff68044eba9e1db189934b860, type: 2}
      propertyPath: m_LocalPosition.x
      value: -.373905391
      objectReference: {fileID: 0}
    - target: {fileID: 400000, guid: cd3ca65ff68044eba9e1db189934b860, type: 2}
      propertyPath: m_LocalPosition.y
      value: -.00292968797
      objectReference: {fileID: 0}
    - target: {fileID: 400000, guid: cd3ca65ff68044eba9e1db189934b860, type: 2}
      propertyPath: m_LocalPosition.z
      value: 5.73631382
      objectReference: {fileID: 0}
    m_RemovedComponents: []
  m_ParentPrefab: {fileID: 100100000, guid: cd3ca65ff68044eba9e1db189934b860, type: 2}
  m_RootGameObject: {fileID: 18}
  m_IsPrefabParent: 0
--- !u!1001 &66
Prefab:
  m_ObjectHideFlags: 0
  serializedVersion: 2
  m_Modification:
    m_TransformParent: {fileID: 25}
    m_Modifications:
    - target: {fileID: 100000, guid: cd3ca65ff68044eba9e1db189934b860, type: 2}
      propertyPath: m_Name
      value: Point3
      objectReference: {fileID: 0}
    - target: {fileID: 400000, guid: cd3ca65ff68044eba9e1db189934b860, type: 2}
      propertyPath: m_LocalPosition.x
      value: -3.5528841
      objectReference: {fileID: 0}
    - target: {fileID: 400000, guid: cd3ca65ff68044eba9e1db189934b860, type: 2}
      propertyPath: m_LocalPosition.y
      value: -.00341796898
      objectReference: {fileID: 0}
    - target: {fileID: 400000, guid: cd3ca65ff68044eba9e1db189934b860, type: 2}
      propertyPath: m_LocalPosition.z
      value: 3.24111795
      objectReference: {fileID: 0}
    m_RemovedComponents: []
  m_ParentPrefab: {fileID: 100100000, guid: cd3ca65ff68044eba9e1db189934b860, type: 2}
  m_RootGameObject: {fileID: 16}
  m_IsPrefabParent: 0
--- !u!1001 &67
Prefab:
  m_ObjectHideFlags: 0
  serializedVersion: 2
  m_Modification:
    m_TransformParent: {fileID: 25}
    m_Modifications:
    - target: {fileID: 100000, guid: cd3ca65ff68044eba9e1db189934b860, type: 2}
      propertyPath: m_Name
      value: Point2
      objectReference: {fileID: 0}
    - target: {fileID: 400000, guid: cd3ca65ff68044eba9e1db189934b860, type: 2}
      propertyPath: m_LocalRotation.x
      value: 0
      objectReference: {fileID: 0}
    - target: {fileID: 400000, guid: cd3ca65ff68044eba9e1db189934b860, type: 2}
      propertyPath: m_LocalRotation.y
      value: 0
      objectReference: {fileID: 0}
    - target: {fileID: 400000, guid: cd3ca65ff68044eba9e1db189934b860, type: 2}
      propertyPath: m_LocalRotation.z
      value: 0
      objectReference: {fileID: 0}
    - target: {fileID: 400000, guid: cd3ca65ff68044eba9e1db189934b860, type: 2}
      propertyPath: m_LocalRotation.w
      value: 1
      objectReference: {fileID: 0}
    - target: {fileID: 400000, guid: cd3ca65ff68044eba9e1db189934b860, type: 2}
      propertyPath: m_LocalPosition.x
      value: -.986998081
      objectReference: {fileID: 0}
    - target: {fileID: 400000, guid: cd3ca65ff68044eba9e1db189934b860, type: 2}
      propertyPath: m_LocalPosition.y
      value: -.00244140602
      objectReference: {fileID: 0}
    - target: {fileID: 400000, guid: cd3ca65ff68044eba9e1db189934b860, type: 2}
      propertyPath: m_LocalPosition.z
      value: -4.29386806
      objectReference: {fileID: 0}
    m_RemovedComponents: []
  m_ParentPrefab: {fileID: 100100000, guid: cd3ca65ff68044eba9e1db189934b860, type: 2}
  m_RootGameObject: {fileID: 17}
  m_IsPrefabParent: 0
--- !u!1001 &68
Prefab:
  m_ObjectHideFlags: 0
  serializedVersion: 2
  m_Modification:
    m_TransformParent: {fileID: 25}
    m_Modifications:
    - target: {fileID: 100000, guid: cd3ca65ff68044eba9e1db189934b860, type: 2}
      propertyPath: m_Name
      value: Point1
      objectReference: {fileID: 0}
    - target: {fileID: 400000, guid: cd3ca65ff68044eba9e1db189934b860, type: 2}
      propertyPath: m_LocalRotation.x
      value: 0
      objectReference: {fileID: 0}
    - target: {fileID: 400000, guid: cd3ca65ff68044eba9e1db189934b860, type: 2}
      propertyPath: m_LocalRotation.y
      value: 0
      objectReference: {fileID: 0}
    - target: {fileID: 400000, guid: cd3ca65ff68044eba9e1db189934b860, type: 2}
      propertyPath: m_LocalRotation.z
      value: 0
      objectReference: {fileID: 0}
    - target: {fileID: 400000, guid: cd3ca65ff68044eba9e1db189934b860, type: 2}
      propertyPath: m_LocalRotation.w
      value: 1
      objectReference: {fileID: 0}
    - target: {fileID: 400000, guid: cd3ca65ff68044eba9e1db189934b860, type: 2}
      propertyPath: m_LocalPosition.x
      value: -5.93560314
      objectReference: {fileID: 0}
    - target: {fileID: 400000, guid: cd3ca65ff68044eba9e1db189934b860, type: 2}
      propertyPath: m_LocalPosition.y
      value: -.00146484375
      objectReference: {fileID: 0}
    - target: {fileID: 400000, guid: cd3ca65ff68044eba9e1db189934b860, type: 2}
      propertyPath: m_LocalPosition.z
      value: -4.89880991
      objectReference: {fileID: 0}
    m_RemovedComponents: []
  m_ParentPrefab: {fileID: 100100000, guid: cd3ca65ff68044eba9e1db189934b860, type: 2}
  m_RootGameObject: {fileID: 9}
  m_IsPrefabParent: 0
--- !u!196 &69
NavMeshSettings:
  serializedVersion: 2
  m_ObjectHideFlags: 0
  m_BuildSettings:
    serializedVersion: 2
    agentRadius: .5
    agentHeight: 2
    agentSlope: 45
    agentClimb: .400000006
    ledgeDropHeight: 0
    maxJumpAcrossDistance: 0
    accuratePlacement: 0
    minRegionArea: 2
    cellSize: .166666657
    manualCellSize: 0
  m_NavMeshData: {fileID: 0}
