%YAML 1.1
%TAG !u! tag:unity3d.com,2011:
--- !u!21 &2100000
Material:
  serializedVersion: 5
  m_ObjectHideFlags: 0
  m_PrefabParentObject: {fileID: 0}
  m_PrefabInternal: {fileID: 0}
  m_Name: lightBlue
  m_Shader: {fileID: 7, guid: 0000000000000000f000000000000000, type: 0}
  m_ShaderKeywords: 
  m_LightmapFlags: 5
  m_CustomRenderQueue: -1
  m_SavedProperties:
    serializedVersion: 2
    m_TexEnvs:
      data:
        first:
          name: _MainTex
        second:
          m_Texture: {fileID: 0}
          m_Scale: {x: 1, y: 1}
          m_Offset: {x: 0, y: 0}
    m_Floats:
      data:
        first:
          name: _Shininess
        second: .699999988
    m_Colors:
      data:
        first:
          name: _Color
        second: {r: .461177886, g: .84509486, b: 1, a: 1}
      data:
        first:
          name: _SpecColor
        second: {r: 1, g: 1, b: 1, a: 1}
      data:
        first:
          name: _Emission
        second: {r: .212620199, g: .212620199, b: .212620199, a: 0}
--- !u!1002 &2100001
EditorExtensionImpl:
  serializedVersion: 6
