{
	"stageList" : [
		{
			"id" : "1",
			"name" : "스테이지 이름1",
			"file" : "stage_1"
		},
		{
			"id" : "2",
			"name" : "스테이지 이름2",
			"file" : "stage_1"
		},
		{
			"id" : "3",
			"name" : "스테이지 이름3",
			"file" : "stage_1"
		},
		{
			"id" : "4",
			"name" : "스테이지 이름4",
			"file" : "stage_1"
		},
		{
			"id" : "5",
			"name" : "스테이지 이름5",
			"file" : "stage_5"
		}
	]
}