%YAML 1.1
%TAG !u! tag:unity3d.com,2011:
--- !u!1045 &1
EditorBuildSettings:
  m_ObjectHideFlags: 0
  serializedVersion: 2
  m_Scenes:
  - enabled: 1
    path: Assets/_Scenes/02_Lobby.unity
  - enabled: 1
    path: Assets/_Scenes/03_Stage.unity
  - enabled: 1
    path: Assets/_Scenes/04_Temp.unity
  - enabled: 1
    path: Assets/_Scenes/Field 2.unity
  - enabled: 1
    path: Assets/_Scenes/01_Splash.unity
